[
  {
	"hatName": "Default",
    "filePathBody": "resources/Phineas/character_body_right.png",
  },
  {
	"hatName": "Evil",
    "filePathBody": "resources/Phineas/character_body_evil_right.png",
  }
]